This command then this bash file

ls | parallel ../scan_run.sh {} :::{}


cd $1
ls
 EXT=dsc
 for i in *; do
    if [ "${i}" != "${i%.${EXT}}" ]; then
      dpkg-source -x  $i
    fi
  done

 for dname in *; do
    if [ -d $dname ]; then
       cd $dname
       scan-build-5.0  -o ~/public_html/test1000/$dname -load-plugin /storage/packagerepo/buildfolder/SecondCheckerPlugin.so  -enable-checker example.secondchecker dpkg-buildpackage -b >>log.txt
       cd ../
    fi
  cd ../
 done
